<?xml version="1.0" encoding="utf-8"?>
<!-- Generator: Adobe Illustrator 23.0.1, SVG Export Plug-In . SVG Version: 6.00 Build 0)  -->
<svg version="1.1" id="Capa_1" xmlns="http://www.w3.org/2000/svg" xmlns:xlink="http://www.w3.org/1999/xlink" x="0px" y="0px"
	 viewBox="0 0 512 512" style="enable-background:new 0 0 512 512;" xml:space="preserve">
<style type="text/css">
	.st0{fill:#FFFFFF;}
</style>
<g>
	<path class="st0" d="M507.3,259.8c-82.8-83.9-167.1-126.4-250.6-126.6c-0.1,0-0.2,0-0.3,0c-83.6,0-168.3,42.6-251.6,126.5L0,264.5
		l5.1,4.4c83.6,73.2,167.6,109.8,251.4,109.8c83.8,0,167.5-36.6,250.5-109.8l5-4.4L507.3,259.8z M256.7,145.9
		c25.9,0,51.9,4.5,77.9,13.1c13.9,17.6,22.4,39.7,22.4,63.8c0,57.4-46.7,104.1-104.1,104.1s-104.1-46.7-104.1-104.1
		c0-22.6,7.3-43.4,19.6-60.5c29.5-10.9,58.8-16.4,88-16.4C256.5,145.9,256.6,145.9,256.7,145.9z M18.5,263.9
		c43.4-42.9,87-74.1,130.4-93.6c-8,15.8-12.8,33.6-12.8,52.5c0,64.4,52.4,116.7,116.7,116.7s116.7-52.4,116.7-116.7
		c0-20.4-5.4-39.6-14.7-56.2c46.2,19.2,92.6,51.6,138.6,97.4C334.4,401.6,178.9,401.5,18.5,263.9z"/>
	<path class="st0" d="M252.9,263.9c22.7,0,41.1-18.4,41.1-41.1c0-22.7-18.4-41.1-41.1-41.1s-41.1,18.4-41.1,41.1
		C211.8,245.4,230.2,263.9,252.9,263.9z M252.9,194.3c15.7,0,28.4,12.8,28.4,28.4c0,15.7-12.8,28.4-28.4,28.4s-28.4-12.8-28.4-28.4
		C224.4,207.1,237.2,194.3,252.9,194.3z"/>
</g>
</svg>
