<?xml version="1.0" encoding="utf-8"?>
<!-- Generator: Adobe Illustrator 21.0.0, SVG Export Plug-In . SVG Version: 6.00 Build 0)  -->
<svg version="1.1" id="Capa_1" xmlns="http://www.w3.org/2000/svg" xmlns:xlink="http://www.w3.org/1999/xlink" x="0px" y="0px"
	 viewBox="0 0 233 233" style="enable-background:new 0 0 233 233;" xml:space="preserve">
<style type="text/css">
	.st0{fill:#0B2E71;}
	.st1{fill:#FFFFFF;}
</style>
<g>
	<path class="st0" d="M116.5,232.5c-64,0-116-52-116-116c0-64,52-116,116-116c64,0,116,52,116,116
		C232.5,180.5,180.5,232.5,116.5,232.5z"/>
	<path class="st1" d="M116.5,1c30.9,0,59.9,12,81.7,33.8S232,85.6,232,116.5s-12,59.9-33.8,81.7S147.4,232,116.5,232
		s-59.9-12-81.7-33.8S1,147.4,1,116.5s12-59.9,33.8-81.7S85.6,1,116.5,1 M116.5,0C52.2,0,0,52.2,0,116.5S52.2,233,116.5,233
		S233,180.8,233,116.5S180.8,0,116.5,0L116.5,0z"/>
</g>
<g>
	<path class="st1" d="M155.2,129.3c0,18.6-13.2,33.5-40.7,33.5c-15.2,0-30.2-4.9-39.4-13l7.1-12.1c7.2,6.8,19.2,11.5,32.2,11.5
		c16.3,0,25.5-7.5,25.5-19.2c0-12.1-7.7-19.6-32.5-19.6H82.9l5.7-56.2h60.6v13.4h-47.7l-2.9,29.5h12
		C142.6,96.9,155.2,110.3,155.2,129.3z"/>
</g>
</svg>
