<?xml version="1.0" encoding="utf-8"?>
<!-- Generator: Adobe Illustrator 21.0.0, SVG Export Plug-In . SVG Version: 6.00 Build 0)  -->
<svg version="1.1" id="Capa_1" xmlns="http://www.w3.org/2000/svg" xmlns:xlink="http://www.w3.org/1999/xlink" x="0px" y="0px"
	 viewBox="0 0 233 233" style="enable-background:new 0 0 233 233;" xml:space="preserve">
<style type="text/css">
	.st0{fill:#0B2E71;}
	.st1{fill:#FFFFFF;}
</style>
<g>
	<path class="st0" d="M116.5,232.5c-64,0-116-52-116-116c0-64,52-116,116-116c64,0,116,52,116,116
		C232.5,180.5,180.5,232.5,116.5,232.5z"/>
	<path class="st1" d="M116.5,1c30.9,0,59.9,12,81.7,33.8S232,85.6,232,116.5s-12,59.9-33.8,81.7S147.4,232,116.5,232
		s-59.9-12-81.7-33.8S1,147.4,1,116.5s12-59.9,33.8-81.7S85.6,1,116.5,1 M116.5,0C52.2,0,0,52.2,0,116.5S52.2,233,116.5,233
		S233,180.8,233,116.5S180.8,0,116.5,0L116.5,0z"/>
</g>
<g>
	<path class="st1" d="M156.5,106.4c0,36.7-20.7,56.3-50.8,56.3c-10.1,0-19.8-2-26.7-6.3l5.8-12c5.7,3.7,12.9,5.1,20.7,5.1
		c21.8,0,35.6-13.7,35.6-40.5v-3.8c-6.3,9.4-17.6,14.1-31,14.1c-21.3,0-36.7-12.7-36.7-32.5c0-20.7,16.6-33.9,37.9-33.9
		C140.2,52.9,156.5,72.2,156.5,106.4z M137.6,86c0-11-8.9-20.7-25.6-20.7c-14,0-23.6,8.1-23.6,20.9c0,12.6,9.4,20.7,24.4,20.7
		C127.5,106.9,137.6,97.9,137.6,86z"/>
</g>
</svg>
